^C:\USERS\משתמש\SOURCE\REPOS\CHESS_AVNER_MENASHE\CHESS_AVNER_MENASHE\AIMOVES.CPP
/c /I"C:\USERS\משתמש\SOURCE\REPOS\CHESS_AVNER_MENASHE\SFML-2.5.1\INCLUDE" /ZI /JMC /nologo /W3 /WX- /diagnostics:classic /sdl /Od /Oy- /D _MBCS /Gm- /EHsc /RTC1 /MDd /GS /fp:precise /permissive- /Zc:wchar_t /Zc:forScope /Zc:inline /Fo"DEBUG\\" /Fd"DEBUG\VC141.PDB" /Gd /TP /analyze- /FC C:\USERS\משתמש\SOURCE\REPOS\CHESS_AVNER_MENASHE\CHESS_AVNER_MENASHE\AIMOVES.CPP
^C:\USERS\משתמש\SOURCE\REPOS\CHESS_AVNER_MENASHE\CHESS_AVNER_MENASHE\BISHOP.CPP
/c /I"C:\USERS\משתמש\SOURCE\REPOS\CHESS_AVNER_MENASHE\SFML-2.5.1\INCLUDE" /ZI /JMC /nologo /W3 /WX- /diagnostics:classic /sdl /Od /Oy- /D _MBCS /Gm- /EHsc /RTC1 /MDd /GS /fp:precise /permissive- /Zc:wchar_t /Zc:forScope /Zc:inline /Fo"DEBUG\\" /Fd"DEBUG\VC141.PDB" /Gd /TP /analyze- /FC C:\USERS\משתמש\SOURCE\REPOS\CHESS_AVNER_MENASHE\CHESS_AVNER_MENASHE\BISHOP.CPP
^C:\USERS\משתמש\SOURCE\REPOS\CHESS_AVNER_MENASHE\CHESS_AVNER_MENASHE\BOARD.CPP
/c /I"C:\USERS\משתמש\SOURCE\REPOS\CHESS_AVNER_MENASHE\SFML-2.5.1\INCLUDE" /ZI /JMC /nologo /W3 /WX- /diagnostics:classic /sdl /Od /Oy- /D _MBCS /Gm- /EHsc /RTC1 /MDd /GS /fp:precise /permissive- /Zc:wchar_t /Zc:forScope /Zc:inline /Fo"DEBUG\\" /Fd"DEBUG\VC141.PDB" /Gd /TP /analyze- /FC C:\USERS\משתמש\SOURCE\REPOS\CHESS_AVNER_MENASHE\CHESS_AVNER_MENASHE\BOARD.CPP
^C:\USERS\משתמש\SOURCE\REPOS\CHESS_AVNER_MENASHE\CHESS_AVNER_MENASHE\BST.CPP
/c /I"C:\USERS\משתמש\SOURCE\REPOS\CHESS_AVNER_MENASHE\SFML-2.5.1\INCLUDE" /ZI /JMC /nologo /W3 /WX- /diagnostics:classic /sdl /Od /Oy- /D _MBCS /Gm- /EHsc /RTC1 /MDd /GS /fp:precise /permissive- /Zc:wchar_t /Zc:forScope /Zc:inline /Fo"DEBUG\\" /Fd"DEBUG\VC141.PDB" /Gd /TP /analyze- /FC C:\USERS\משתמש\SOURCE\REPOS\CHESS_AVNER_MENASHE\CHESS_AVNER_MENASHE\BST.CPP
^C:\USERS\משתמש\SOURCE\REPOS\CHESS_AVNER_MENASHE\CHESS_AVNER_MENASHE\CHESSBOARD.CPP
/c /I"C:\USERS\משתמש\SOURCE\REPOS\CHESS_AVNER_MENASHE\SFML-2.5.1\INCLUDE" /ZI /JMC /nologo /W3 /WX- /diagnostics:classic /sdl /Od /Oy- /D _MBCS /Gm- /EHsc /RTC1 /MDd /GS /fp:precise /permissive- /Zc:wchar_t /Zc:forScope /Zc:inline /Fo"DEBUG\\" /Fd"DEBUG\VC141.PDB" /Gd /TP /analyze- /FC C:\USERS\משתמש\SOURCE\REPOS\CHESS_AVNER_MENASHE\CHESS_AVNER_MENASHE\CHESSBOARD.CPP
^C:\USERS\משתמש\SOURCE\REPOS\CHESS_AVNER_MENASHE\CHESS_AVNER_MENASHE\GAME.CPP
/c /I"C:\USERS\משתמש\SOURCE\REPOS\CHESS_AVNER_MENASHE\SFML-2.5.1\INCLUDE" /ZI /JMC /nologo /W3 /WX- /diagnostics:classic /sdl /Od /Oy- /D _MBCS /Gm- /EHsc /RTC1 /MDd /GS /fp:precise /permissive- /Zc:wchar_t /Zc:forScope /Zc:inline /Fo"DEBUG\\" /Fd"DEBUG\VC141.PDB" /Gd /TP /analyze- /FC C:\USERS\משתמש\SOURCE\REPOS\CHESS_AVNER_MENASHE\CHESS_AVNER_MENASHE\GAME.CPP
^C:\USERS\משתמש\SOURCE\REPOS\CHESS_AVNER_MENASHE\CHESS_AVNER_MENASHE\GRAHPICSFUNCTIONS.CPP
/c /I"C:\USERS\משתמש\SOURCE\REPOS\CHESS_AVNER_MENASHE\SFML-2.5.1\INCLUDE" /ZI /JMC /nologo /W3 /WX- /diagnostics:classic /sdl /Od /Oy- /D _MBCS /Gm- /EHsc /RTC1 /MDd /GS /fp:precise /permissive- /Zc:wchar_t /Zc:forScope /Zc:inline /Fo"DEBUG\\" /Fd"DEBUG\VC141.PDB" /Gd /TP /analyze- /FC C:\USERS\משתמש\SOURCE\REPOS\CHESS_AVNER_MENASHE\CHESS_AVNER_MENASHE\GRAHPICSFUNCTIONS.CPP
^C:\USERS\משתמש\SOURCE\REPOS\CHESS_AVNER_MENASHE\CHESS_AVNER_MENASHE\KING.CPP
/c /I"C:\USERS\משתמש\SOURCE\REPOS\CHESS_AVNER_MENASHE\SFML-2.5.1\INCLUDE" /ZI /JMC /nologo /W3 /WX- /diagnostics:classic /sdl /Od /Oy- /D _MBCS /Gm- /EHsc /RTC1 /MDd /GS /fp:precise /permissive- /Zc:wchar_t /Zc:forScope /Zc:inline /Fo"DEBUG\\" /Fd"DEBUG\VC141.PDB" /Gd /TP /analyze- /FC C:\USERS\משתמש\SOURCE\REPOS\CHESS_AVNER_MENASHE\CHESS_AVNER_MENASHE\KING.CPP
^C:\USERS\משתמש\SOURCE\REPOS\CHESS_AVNER_MENASHE\CHESS_AVNER_MENASHE\KNIGHT.CPP
/c /I"C:\USERS\משתמש\SOURCE\REPOS\CHESS_AVNER_MENASHE\SFML-2.5.1\INCLUDE" /ZI /JMC /nologo /W3 /WX- /diagnostics:classic /sdl /Od /Oy- /D _MBCS /Gm- /EHsc /RTC1 /MDd /GS /fp:precise /permissive- /Zc:wchar_t /Zc:forScope /Zc:inline /Fo"DEBUG\\" /Fd"DEBUG\VC141.PDB" /Gd /TP /analyze- /FC C:\USERS\משתמש\SOURCE\REPOS\CHESS_AVNER_MENASHE\CHESS_AVNER_MENASHE\KNIGHT.CPP
^C:\USERS\משתמש\SOURCE\REPOS\CHESS_AVNER_MENASHE\CHESS_AVNER_MENASHE\MAIN.CPP
/c /I"C:\USERS\משתמש\SOURCE\REPOS\CHESS_AVNER_MENASHE\SFML-2.5.1\INCLUDE" /ZI /JMC /nologo /W3 /WX- /diagnostics:classic /sdl /Od /Oy- /D _MBCS /Gm- /EHsc /RTC1 /MDd /GS /fp:precise /permissive- /Zc:wchar_t /Zc:forScope /Zc:inline /Fo"DEBUG\\" /Fd"DEBUG\VC141.PDB" /Gd /TP /analyze- /FC C:\USERS\משתמש\SOURCE\REPOS\CHESS_AVNER_MENASHE\CHESS_AVNER_MENASHE\MAIN.CPP
^C:\USERS\משתמש\SOURCE\REPOS\CHESS_AVNER_MENASHE\CHESS_AVNER_MENASHE\PAWN.CPP
/c /I"C:\USERS\משתמש\SOURCE\REPOS\CHESS_AVNER_MENASHE\SFML-2.5.1\INCLUDE" /ZI /JMC /nologo /W3 /WX- /diagnostics:classic /sdl /Od /Oy- /D _MBCS /Gm- /EHsc /RTC1 /MDd /GS /fp:precise /permissive- /Zc:wchar_t /Zc:forScope /Zc:inline /Fo"DEBUG\\" /Fd"DEBUG\VC141.PDB" /Gd /TP /analyze- /FC C:\USERS\משתמש\SOURCE\REPOS\CHESS_AVNER_MENASHE\CHESS_AVNER_MENASHE\PAWN.CPP
^C:\USERS\משתמש\SOURCE\REPOS\CHESS_AVNER_MENASHE\CHESS_AVNER_MENASHE\PIECE.CPP
/c /I"C:\USERS\משתמש\SOURCE\REPOS\CHESS_AVNER_MENASHE\SFML-2.5.1\INCLUDE" /ZI /JMC /nologo /W3 /WX- /diagnostics:classic /sdl /Od /Oy- /D _MBCS /Gm- /EHsc /RTC1 /MDd /GS /fp:precise /permissive- /Zc:wchar_t /Zc:forScope /Zc:inline /Fo"DEBUG\\" /Fd"DEBUG\VC141.PDB" /Gd /TP /analyze- /FC C:\USERS\משתמש\SOURCE\REPOS\CHESS_AVNER_MENASHE\CHESS_AVNER_MENASHE\PIECE.CPP
^C:\USERS\משתמש\SOURCE\REPOS\CHESS_AVNER_MENASHE\CHESS_AVNER_MENASHE\PLAY.CPP
/c /I"C:\USERS\משתמש\SOURCE\REPOS\CHESS_AVNER_MENASHE\SFML-2.5.1\INCLUDE" /ZI /JMC /nologo /W3 /WX- /diagnostics:classic /sdl /Od /Oy- /D _MBCS /Gm- /EHsc /RTC1 /MDd /GS /fp:precise /permissive- /Zc:wchar_t /Zc:forScope /Zc:inline /Fo"DEBUG\\" /Fd"DEBUG\VC141.PDB" /Gd /TP /analyze- /FC C:\USERS\משתמש\SOURCE\REPOS\CHESS_AVNER_MENASHE\CHESS_AVNER_MENASHE\PLAY.CPP
^C:\USERS\משתמש\SOURCE\REPOS\CHESS_AVNER_MENASHE\CHESS_AVNER_MENASHE\QUEEN.CPP
/c /I"C:\USERS\משתמש\SOURCE\REPOS\CHESS_AVNER_MENASHE\SFML-2.5.1\INCLUDE" /ZI /JMC /nologo /W3 /WX- /diagnostics:classic /sdl /Od /Oy- /D _MBCS /Gm- /EHsc /RTC1 /MDd /GS /fp:precise /permissive- /Zc:wchar_t /Zc:forScope /Zc:inline /Fo"DEBUG\\" /Fd"DEBUG\VC141.PDB" /Gd /TP /analyze- /FC C:\USERS\משתמש\SOURCE\REPOS\CHESS_AVNER_MENASHE\CHESS_AVNER_MENASHE\QUEEN.CPP
^C:\USERS\משתמש\SOURCE\REPOS\CHESS_AVNER_MENASHE\CHESS_AVNER_MENASHE\ROOK.CPP
/c /I"C:\USERS\משתמש\SOURCE\REPOS\CHESS_AVNER_MENASHE\SFML-2.5.1\INCLUDE" /ZI /JMC /nologo /W3 /WX- /diagnostics:classic /sdl /Od /Oy- /D _MBCS /Gm- /EHsc /RTC1 /MDd /GS /fp:precise /permissive- /Zc:wchar_t /Zc:forScope /Zc:inline /Fo"DEBUG\\" /Fd"DEBUG\VC141.PDB" /Gd /TP /analyze- /FC C:\USERS\משתמש\SOURCE\REPOS\CHESS_AVNER_MENASHE\CHESS_AVNER_MENASHE\ROOK.CPP
^C:\USERS\משתמש\SOURCE\REPOS\CHESS_AVNER_MENASHE\CHESS_AVNER_MENASHE\SOURCE.CPP
/c /I"C:\USERS\משתמש\SOURCE\REPOS\CHESS_AVNER_MENASHE\SFML-2.5.1\INCLUDE" /ZI /JMC /nologo /W3 /WX- /diagnostics:classic /sdl /Od /Oy- /D _MBCS /Gm- /EHsc /RTC1 /MDd /GS /fp:precise /permissive- /Zc:wchar_t /Zc:forScope /Zc:inline /Fo"DEBUG\\" /Fd"DEBUG\VC141.PDB" /Gd /TP /analyze- /FC C:\USERS\משתמש\SOURCE\REPOS\CHESS_AVNER_MENASHE\CHESS_AVNER_MENASHE\SOURCE.CPP
^C:\USERS\משתמש\SOURCE\REPOS\CHESS_AVNER_MENASHE\CHESS_AVNER_MENASHE\SPOT.CPP
/c /I"C:\USERS\משתמש\SOURCE\REPOS\CHESS_AVNER_MENASHE\SFML-2.5.1\INCLUDE" /ZI /JMC /nologo /W3 /WX- /diagnostics:classic /sdl /Od /Oy- /D _MBCS /Gm- /EHsc /RTC1 /MDd /GS /fp:precise /permissive- /Zc:wchar_t /Zc:forScope /Zc:inline /Fo"DEBUG\\" /Fd"DEBUG\VC141.PDB" /Gd /TP /analyze- /FC C:\USERS\משתמש\SOURCE\REPOS\CHESS_AVNER_MENASHE\CHESS_AVNER_MENASHE\SPOT.CPP
